[
    {
        "vote_average": 7.2,
        "genres": [
            "Comedy"
        ],
        "release_date": "2018-01-01",
        "id": 1645066839419,
        "title": "فيلم تراب الماس 2018 كامل HD",
        "fr": [
            "www.uqload.com/embed-zd20k7csgzd7.html"
        ],
        "poster_path": "d.dramacafe-tv.com:2096/uploads/thumbs/5d440d1fa-1.jpg",
        "duration": 147,
        "overview":""
    },
    {
        "vote_average": 7.2,
        "genres": [
            "Comedy"
        ],
        "release_date": "2019-01-01",
        "id": 1645066744105,
        "title": "بلا هيبة",
        "fr": [
            "ok.ru/videoembed/2831958084102?autoplay=1",
            "uqload.com/embed-dgt4cvlkmhvp.html"
        ],
        "poster_path": "d.dramacafe-tv.com:2096/uploads/thumbs/14a8f33b4-1.jpg",
        "duration": 114,
        "overview":""
    },
    {
        "vote_average": 7.2,
        "genres": [
            "Comedy"
        ],
        "release_date": "2014-01-01",
        "id": 1645066734620,
        "title": "فيلم اللي جاي أحسن 2014 كامل HD",
        "fr": [
            "www.ok.ru/videoembed/3083281959652",
            "www.uqload.com/embed-2hf0zei6ft5j.html"
        ],
        "poster_path": "d.dramacafe-tv.com:2096/uploads/thumbs/f0c5f0dc6-1.jpg",
        "duration": 90,
        "overview":""
    },
    {
        "vote_average": 7.2,
        "genres": [
            "Comedy"
        ],
        "release_date": "2018-01-01",
        "id": 1645062605853,
        "title": "فيلم جدو نحنوح 2018 كامل HD",
        "fr": [
            "www.ok.ru/videoembed/2826284501529",
            "www.uqload.com/embed-lycn26zej4xk.html"
        ],
        "poster_path": "d.dramacafe-tv.com:2096/uploads/thumbs/b3ce5586d-1.jpg",
        "duration": 101,
        "overview":""
    },
    {
        "vote_average": 7.2,
        "genres": [
            "Comedy"
        ],
        "release_date": "2021-01-01",
        "id": 1645062590200,
        "title": "ديدو",
        "fr": [
            "ok.ru/videoembed/2794325215769",
            "uqload.com/embed-ki4cid8g8e2d.html"
        ],
        "poster_path": "wws.dramacafe-tv.com/uploads/thumbs/ed91486d5-1.jpg",
        "duration": 96,
        "overview":""
    },
    {
        "vote_average": 7.2,
        "genres": [
            "Comedy"
        ],
        "release_date": "2020-01-01",
        "id": 1645062574713,
        "title": "فيلم دماغ شيطان 2020 كامل HD",
        "fr": [
            "www.ok.ru/videoembed/2822937840134?autoplay=1",
            "www.uqload.com/embed-a00fqm67jgl6.html"
        ],
        "poster_path": "d.dramacafe-tv.com:2096/uploads/thumbs/9546f8e6a-1.jpg",
        "duration": 82,
        "overview":""
    },
    {
        "vote_average": 7.2,
        "genres": [
            "Comedy"
        ],
        "release_date": "2015-01-01",
        "id": 1645062562082,
        "title": "حياتي مبهدلة",
        "fr": [
            "www.uqload.com/embed-kh2li2we7tnu.html"
        ],
        "poster_path": "d.dramacafe-tv.com:2096/uploads/thumbs/6d56aa366-1.jpg",
        "duration": 100,
        "overview":""
    },
    {
        "vote_average": 7.2,
        "genres": [
            "Comedy"
        ],
        "release_date": "2019-01-01",
        "id": 1645062544813,
        "title": "عيش حياتك",
        "fr": [
            "ok.ru/videoembed/2802964171289",
            "uqload.com/embed-efzgmd3awi7n.html"
        ],
        "poster_path": "d.dramacafe-tv.com:2096/uploads/thumbs/d9b904196-1.jpg",
        "duration": 110,
        "overview":""
    },
    {
        "vote_average": 7.2,
        "genres": [
            "Comedy"
        ],
        "release_date": "2019-01-01",
        "id": 1645062199952,
        "title": "ضغط عالي",
        "fr": [
            "ok.ru/videoembed/2803011160601",
            "uqload.com/embed-w7ttmyj3mnq9.html"
        ],
        "poster_path": "d.dramacafe-tv.com:2096/uploads/thumbs/2830941c1-1.jpg",
        "duration": 105,
        "overview":""
    },
    {
        "vote_average": 7.2,
        "genres": [
            "Comedy"
        ],
        "release_date": "2015-01-01",
        "id": 1645062186150,
        "title": "ولاد رزق",
        "fr": [
            "uqload.com/embed-bpy6gkjec6p1.html"
        ],
        "poster_path": "d.dramacafe-tv.com:2096/uploads/thumbs/ac29df05e-1.jpg",
        "duration": 101,
        "overview":""
    },
    {
        "vote_average": 7.2,
        "genres": [
            "Comedy"
        ],
        "release_date": "2016-01-01",
        "id": 1645062172252,
        "title": "هيبتا",
        "fr": [
            "ok.ru/videoembed/2865025845988",
            "uqload.com/embed-p5nuumlzyps3.html"
        ],
        "poster_path": "d.dramacafe-tv.com:2096/uploads/thumbs/02679ab39-1.jpg",
        "duration": 111,
        "overview":""
    },
    {
        "vote_average": 7.2,
        "genres": [
            "Comedy"
        ],
        "release_date": "2020-01-01",
        "id": 1645062155122,
        "title": "لص بغداد",
        "fr": [
            "uqload.com/embed-c3enyv1a318z.html"
        ],
        "poster_path": "d.dramacafe-tv.com:2096/uploads/thumbs/05fbb419c-1.jpg",
        "duration": 101,
        "overview":""
    },
    {
        "vote_average": 7.2,
        "genres": [
            "Comedy"
        ],
        "release_date": "2022-01-01",
        "id": 1645062140052,
        "title": "من أجل زيكو",
        "fr": [
            "ok.ru/videoembed/4065997752974",
            "uqload.com/embed-g6odm20xdai8.html"
        ],
        "poster_path": "d.dramacafe-tv.com:2096/uploads/thumbs/Cfb224f79-1.jpg",
        "duration": 93,
        "overview":""
    },
    {
        "vote_average": 7.2,
        "genres": [
            "Comedy"
        ],
        "release_date": "2021-01-01",
        "id": 1645062125059,
        "title": "ثانية واحدة",
        "fr": [
            "uqload.com/embed-0h93jpx5lgup.html"
        ],
        "poster_path": "d.dramacafe-tv.com:2096/uploads/thumbs/010188286-1.jpg",
        "duration": 88,
        "overview":""
    },
    {
        "vote_average": 7.2,
        "genres": [
            "Comedy"
        ],
        "release_date": "2021-01-01",
        "id": 1645062114086,
        "title": "وقفة رجالة",
        "fr": [
            "www.uqload.com/embed-h5wyq5x18c3m.html"
        ],
        "poster_path": "d.dramacafe-tv.com:2096/uploads/thumbs/ae1f31478-1.jpg",
        "duration": 120,
        "overview":""
    },
    {
        "vote_average": 7.2,
        "genres": [
            "Comedy"
        ],
        "release_date": "2020-01-01",
        "id": 1645062040472,
        "title": "ماكو",
        "fr": [
            "ok.ru/videoembed/3289976146660",
            "uqload.com/embed-ip7139uv27bm.html"
        ],
        "poster_path": "d.dramacafe-tv.com:2096/uploads/thumbs/6b7a20709-1.jpg",
        "duration": 95,
        "overview":""
    },
    {
        "vote_average": 7.2,
        "genres": [
            "Comedy"
        ],
        "release_date": "2015-01-01",
        "id": 1644538296070,
        "title": "عيال حريفة",
        "fr": [
            "www.ok.ru/videoembed/2930510334692",
            "www.uqload.com/embed-xzjco9qt852f.html"
        ],
        "poster_path": "d.dramacafe-tv.com:2096/uploads/thumbs/7ed6cc771-1.jpg",
        "duration": 101,
        "overview":""
    },
    {
        "vote_average": 7.2,
        "genres": [
            "Comedy"
        ],
        "release_date": "2018-01-01",
        "id": 1644538280786,
        "title": "سوق الجمعة",
        "fr": [
            "ok.ru/videoembed/2826416884249",
            "uqload.com/embed-wj5rm8658yil.html"
        ],
        "poster_path": "d.dramacafe-tv.com:2096/uploads/thumbs/8840f0c61-1.jpg",
        "duration": 99,
        "overview":""
    },
    {
        "vote_average": 7.2,
        "genres": [
            "Comedy"
        ],
        "release_date": "2018-01-01",
        "id": 1644538273355,
        "title": "نورت مصر",
        "fr": [
            "ok.ru/videoembed/2826371992089",
            "uqload.com/embed-n54a53j617k8.html"
        ],
        "poster_path": "d.dramacafe-tv.com:2096/uploads/thumbs/5b485d333-1.jpg",
        "duration": 88,
        "overview":""
    },
    {
        "vote_average": 7.2,
        "genres": [
            "Comedy"
        ],
        "release_date": "2021-01-01",
        "id": 1644537492954,
        "title": "يوم وليلة",
        "fr": [
            "ok.ru/videoembed/2794350774809",
            "uqload.com/embed-iszr44bm0pq3.html"
        ],
        "poster_path": "d.dramacafe-tv.com:2096/uploads/thumbs/1a2049722-1.jpg",
        "duration": 99,
        "overview":""
    },
    {
        "vote_average": 7.2,
        "genres": [
            "Comedy"
        ],
        "release_date": "2019-01-01",
        "id": 1644537482764,
        "title": "ولاد رزق 2",
        "fr": [
            "ok.ru/videoembed/2803153439257",
            "uqload.com/embed-tdzgw3kavqlc.html"
        ],
        "poster_path": "d.dramacafe-tv.com:2096/uploads/thumbs/847a1b051-1.jpg",
        "duration": 108,
        "overview":""
    },
    {
        "vote_average": 7.2,
        "genres": [
            "Comedy"
        ],
        "release_date": "2019-01-01",
        "id": 1644537467598,
        "title": "نادي الرجال السري",
        "fr": [
            "ok.ru/videoembed/2803155143193",
            "uqload.com/embed-ccuhiwyisv48.html"
        ],
        "poster_path": "d.dramacafe-tv.com:2096/uploads/thumbs/58fa89bc8-1.jpg",
        "duration": 105,
        "overview":""
    },
    {
        "vote_average": 7.2,
        "genres": [
            "Comedy"
        ],
        "release_date": "30,2016-01-01",
        "id": 1644537132158,
        "title": "من 30 سنة",
        "fr": [
            "www.ok.ru/videoembed/2864800664292",
            "www.uqload.com/embed-tl85ogmhihwo.html"
        ],
        "poster_path": "d.dramacafe-tv.com:2096/uploads/thumbs/d35c02082-1.jpg",
        "duration": 140,
        "overview":""
    },
    {
        "vote_average": 7.2,
        "genres": [
            "Comedy"
        ],
        "release_date": "2018-01-01",
        "id": 1644537117119,
        "title": "بيكيا",
        "fr": [
            "ok.ru/videoembed/1489581116070",
            "uqload.com/embed-25oaefz9wwqy.html"
        ],
        "poster_path": "d.dramacafe-tv.com:2096/uploads/thumbs/47df9072b-1.jpg",
        "duration": 95,
        "overview":""
    },
    {
        "vote_average": 7.2,
        "genres": [
            "Comedy"
        ],
        "release_date": "2018-01-01",
        "id": 1644537104786,
        "title": "علي بابا",
        "fr": [
            "www.ok.ru/videoembed/3125006502406",
            "www.uqload.com/embed-52herqkghnt7.html"
        ],
        "poster_path": "d.dramacafe-tv.com:2096/uploads/thumbs/c1300f66c-1.jpg",
        "duration": 97,
        "overview":""
    },
    {
        "vote_average": 7.2,
        "genres": [
            "Comedy"
        ],
        "release_date": "2018-01-01",
        "id": 1644536278544,
        "title": "ليلة هنا وسرور",
        "fr": [
            "www.ok.ru/videoembed/2826357180953",
            "www.uqload.com/embed-l82nyer0v3az.html"
        ],
        "poster_path": "d.dramacafe-tv.com:2096/uploads/thumbs/864c04092-1.jpg",
        "duration": 97,
        "overview":""
    },
    {
        "vote_average": 7.2,
        "genres": [
            "Comedy"
        ],
        "release_date": "2015-01-01",
        "id": 1644535332455,
        "title": "كابتن مصر",
        "fr": [
            "ok.ru/videoembed/2930614995684",
            "uqload.com/embed-gajat5mf1hj4.html"
        ],
        "poster_path": "d.dramacafe-tv.com:2096/uploads/thumbs/Eb548a13e-1.jpg",
        "duration": 89,
        "overview":""
    },
    {
        "vote_average": 7.3,
        "genres": [
            "Comedy"
        ],
        "release_date": "2018-01-01",
        "id": 884081,
        "title": "قلب أمه",
        "fr": [
            "uqload.com/embed-wwwhymr2anq4.html"
        ],
        "poster_path": "e7naaa.online/wp-content/uploads/2019/03/قلب-أمه-2018-240x280.jpg",
        "duration": 97,
        "overview":""
    },
    {
        "vote_average": 3.6,
        "genres": [
            "Comedy"
        ],
        "release_date": "2016-01-01",
        "id": 1636029803574,
        "title": "بارتي في حارتي",
        "fr": [
            "uptostream.com/iframe/r063xjmfap5v"
        ],
        "poster_path": "e7naaa.online/wp-content/uploads/2019/08/بارتي-في-حارتي-2016-240x280.jpg",
        "duration": 98,
        "overview":""
    },
    {
        "vote_average": 6.6,
        "genres": [
            "Comedy"
        ],
        "release_date": "2021-01-01",
        "id": 741025,
        "title": "أحمد نوتردام",
        "fr": [
            "uptostream.com/iframe/cofdv0juam90"
        ],
        "poster_path": "media.elcinema.com/uploads/_315x420_0ff5d2013aa74901ed4cb5ca7ff2c65c33b85dcd51c94600f0aea12ae3958a89.jpg",
        "duration": 98,
        "overview":""
    },
    {
        "vote_average": 7.4,
        "genres": [
            "Comedy"
        ],
        "release_date": "2017-01-01",
        "id": 957,
        "title": "على وضعك",
        "fr": [
            "uqload.com/embed-ml16tnw2t12r.html"
        ],
        "poster_path": "1.bp.blogspot.com/-wP-WskkbwYk/WPBOXRaS-TI/AAAAAAAAFTQ/LHr65fEYhwUrL2eAHdjkmbPAnL2lHnihgCLcB/s1600/3la%2Bwad3ak.jpg",
        "duration": 98,
        "overview":""
    },
    {
        "vote_average": 6.7,
        "genres": [
            "Action"
        ],
        "release_date": "2015-01-01",
        "id": 52066,
        "title": "شد أجزاء",
        "fr": [
            "uqload.com/embed-11kh8n0cudpc.html"
        ],
        "poster_path": "media.elcinema.com/uploads/_320x_52066cd8f7d0736a34918cc0bef25f7e0b61faaa55f72e21141dcde7ba0fbc8a.jpg",
        "duration": 98,
        "overview":""
    },
    {
        "vote_average": 6.6,
        "genres": [
            "Comedy"
        ],
        "release_date": "2014-01-01",
        "id": 644083,
        "title": "مراتي وزوجتي",
        "fr": [
            "ok.ru/videoembed/2369427868192"
        ],
        "poster_path": "i.egycdn.com/pic/WmFwZndlY21ZRW1URW12bXZtRUVjbW12Y212bXZ4YW1zag.jpg",
        "duration": 87,
        "overview":""
    }
]